{
    "KPlugin": {
        "Category": "Accessibility",
        "Description": "Magnify the section of the screen that is near the mouse cursor",
        "Description[ar]": "كبّر قسم الشاشة القريب من مؤشّر الفأرة",
        "Description[az]": "Kursorun altındakı ekran hissəsini böyüdücü şüşədə göstərir",
        "Description[ca@valencia]": "Amplia la secció de la pantalla que està prop del cursor del ratolí",
        "Description[ca]": "Amplia la secció de la pantalla que està prop del cursor del ratolí",
        "Description[cs]": "Zvětší část obrazovky, která je poblíž ukazatele myši",
        "Description[es]": "Ampliar la sección de la pantalla que está cerca del cursor del ratón",
        "Description[fi]": "Suurenna hiiriosoittimen läheinen näytön alue",
        "Description[fr]": "Agrandir la partie de l'écran proche du pointeur de la souris",
        "Description[hu]": "Felnagyítja az egérmutató alatti területet",
        "Description[ia]": "Aggrandi le section del schermo que es vicin al cursor del mus",
        "Description[it]": "Ingrandisce la sezione dello schermo nei pressi del puntatore del mouse",
        "Description[ko]": "마우스 커서 근처에 있는 화면을 확대합니다",
        "Description[nl]": "Vergroot het deel van het scherm dat zich onder de muis bevindt",
        "Description[pl]": "Powiększa obszar ekranu znajdujący się pod wskaźnikiem myszy",
        "Description[pt_BR]": "Amplia a seção da tela próxima ao ponteiro do mouse",
        "Description[sl]": "Povečaj del zaslona, ki je blizu miškinega kazalca",
        "Description[sv]": "Förstorar den del av skärmen som är nära muspekaren",
        "Description[uk]": "Збільшення частини екрана поруч з вказівником миші",
        "Description[vi]": "Phóng đại khu vực màn hình gần với con trỏ chuột",
        "Description[x-test]": "xxMagnify the section of the screen that is near the mouse cursorxx",
        "Description[zh_CN]": "放大显示鼠标指针附近的一块方形区域的屏幕内容",
        "EnabledByDefault": false,
        "Id": "magnifier",
        "License": "GPL",
        "Name": "Magnifier",
        "Name[ar]": "المكبّر",
        "Name[az]": "Böyüdücü",
        "Name[ca@valencia]": "Lupa",
        "Name[ca]": "Lupa",
        "Name[cs]": "Lupa",
        "Name[es]": "Lupa",
        "Name[fi]": "Suurennuslasi",
        "Name[fr]": "Loupe",
        "Name[hu]": "Nagyító",
        "Name[ia]": "Aggranditor",
        "Name[it]": "Lente d'ingrandimento",
        "Name[ko]": "돋보기",
        "Name[nl]": "Vergrootglas",
        "Name[pl]": "Powiększenie",
        "Name[pt]": "Lupa",
        "Name[pt_BR]": "Lente de aumento",
        "Name[sl]": "Povečevalno steklo",
        "Name[sv]": "Förstoringsglas",
        "Name[uk]": "Лупа",
        "Name[vi]": "Trình phóng đại",
        "Name[x-test]": "xxMagnifierxx",
        "Name[zh_CN]": "放大镜 (方形)"
    },
    "X-KDE-ConfigModule": "kwin_magnifier_config",
    "org.kde.kwin.effect": {
        "exclusiveGroup": "magnifiers",
        "video": "https://files.kde.org/plasma/kwin/effect-videos/magnifier.ogv"
    }
}
