{
    "KPlugin": {
        "Category": "Appearance",
        "Description": "Display window geometries on move/resize",
        "Description[az]": "Pəncərənin yeri və ya ölçüsü dəyişdirildiyində ekranda onun mövqeyinin və ölçüsünün həndəsi göstəriciləri.",
        "Description[ca@valencia]": "Mostra la geometria de les finestres en moure/redimensionar",
        "Description[ca]": "Mostra la geometria de les finestres en moure/redimensionar",
        "Description[cs]": "Zobrazit geometrii okna při přesunu/změně velikosti",
        "Description[es]": "Mostrar la geometría de las ventanas al moverlas o cambiar su tamaño",
        "Description[fi]": "Näytä ikkunoiden geometria siirrettäessä tai kokoa muutettaessa",
        "Description[fr]": "Afficher la géométrie de la fenêtre pendant son déplacement ou son redimensionnement",
        "Description[hu]": "Megjeleníti az ablakméretet mozgatás és átméretezés közben",
        "Description[ia]": "Monstra geometrias de fenestra quando on move/redimensiona",
        "Description[it]": "Visualizza la geometria delle finestre in caso di spostamento/ridimensionamento",
        "Description[ko]": "창을 이동하거나 크기를 조정할 때 창 크기 표시",
        "Description[nl]": "Vensterafmetingen tonen bij verplaatsen/herschalen",
        "Description[pl]": "Wyświetla geometrię okna podczas jego przesuwania/zmiany rozmiaru",
        "Description[pt_BR]": "Mostra as dimensões da janela ao mover/redimensionar",
        "Description[sl]": "Prikaži geometrijo okna ob premiku oz. spremembi velikosti",
        "Description[sv]": "Visa fönstergeometri vid förflyttning och storleksändring",
        "Description[uk]": "Показ розмірів вікон при пересуванні або зміні розмірів",
        "Description[vi]": "Hiển thị dạng hình học của cửa sổ khi di chuyển / đổi cỡ",
        "Description[x-test]": "xxDisplay window geometries on move/resizexx",
        "Description[zh_CN]": "移动/调整窗口大小时显示窗口大小和位置数值",
        "EnabledByDefault": false,
        "Id": "windowgeometry",
        "License": "GPL",
        "Name": "Window Geometry",
        "Name[ar]": "قياسات النافذة",
        "Name[az]": "Pəncərənin mövqeyi",
        "Name[ca@valencia]": "Geometria de la finestra",
        "Name[ca]": "Geometria de la finestra",
        "Name[cs]": "Geometrie okna",
        "Name[es]": "Geometría de la ventana",
        "Name[fi]": "Ikkunageometria",
        "Name[fr]": "Géométrie de fenêtre",
        "Name[hu]": "Ablakgeometria",
        "Name[ia]": "Geometria de fenestra",
        "Name[it]": "Geometria della finestra",
        "Name[ko]": "창 크기와 위치",
        "Name[nl]": "Geometrie van venster",
        "Name[pl]": "Geometria okna",
        "Name[pt_BR]": "Geometria da janela",
        "Name[sl]": "Geometrija okna",
        "Name[sv]": "Fönstergeometri",
        "Name[uk]": "Розміри вікна",
        "Name[vi]": "Hình dạng của cửa sổ",
        "Name[x-test]": "xxWindow Geometryxx",
        "Name[zh_CN]": "窗口大小位置数值显示"
    },
    "X-KDE-ConfigModule": "kwin_windowgeometry_config",
    "org.kde.kwin.effect": {
        "internal": true
    }
}
