{
    "KPlugin": {
        "Category": "Appearance",
        "Description": "Simulate a magic lamp when minimizing windows",
        "Description[ar]": "حاكِ مصباحًا سحريًّا عند تصغير النوافذ",
        "Description[az]": "Pəncərələri sehirli lampa effekti ilə yığır",
        "Description[ca@valencia]": "Simula una làmpada màgica en minimitzar les finestres",
        "Description[ca]": "Simula una làmpada màgica en minimitzar les finestres",
        "Description[cs]": "Simuluje magickou lampu při minimalizaci oken",
        "Description[es]": "Simular una lámpara mágica al minimizar las ventanas",
        "Description[fi]": "Jäljittelee taikalamppua ikkunoita pienennettäessä",
        "Description[fr]": "Simuler une lampe magique lors de la réduction des fenêtres",
        "Description[hu]": "Az ablakok minimalizálása varázslámpás animáció kíséretében történik",
        "Description[ia]": "Simula un lampa magic quando minimisa fenestras",
        "Description[it]": "Simula una lampada magica nella minimizzazione delle finestre",
        "Description[ko]": "창을 최소화할 때 요술 램프에 빨려들어가는 애니메이션을 보여줍니다",
        "Description[nl]": "Simuleert een magische lamp tijdens het minimaliseren van vensters",
        "Description[pl]": "Okna wchodzą do lampy przy minimalizowaniu i wychodzą przy powrocie z niej",
        "Description[pt_BR]": "Simula uma lâmpada mágica ao minimizar janelas",
        "Description[sl]": "Simuliraj magično svetilko pri strnjevanju oken",
        "Description[sv]": "Simulera en magisk lanterna vid minimering av fönster",
        "Description[uk]": "Імітація ефекту чарівної лампи під час мінімізації вікон",
        "Description[vi]": "Mô phỏng một cây đèn thần khi thu nhỏ các cửa sổ",
        "Description[x-test]": "xxSimulate a magic lamp when minimizing windowsxx",
        "Description[zh_CN]": "窗口最小化时绘制仿照神灯的过渡动画",
        "EnabledByDefault": false,
        "Id": "magiclamp",
        "License": "GPL",
        "Name": "Magic Lamp",
        "Name[ar]": "المصباح السحري",
        "Name[az]": "Sehirli Lampa",
        "Name[ca@valencia]": "Làmpada màgica",
        "Name[ca]": "Làmpada màgica",
        "Name[cs]": "Magická lampa",
        "Name[es]": "Lámpara mágica",
        "Name[fi]": "Taikalamppu",
        "Name[fr]": "Lampe magique",
        "Name[hu]": "Varázslámpa",
        "Name[ia]": "Lampa Magic",
        "Name[it]": "Lampada magica",
        "Name[ko]": "요술 램프",
        "Name[nl]": "Magische lamp",
        "Name[pl]": "Magiczna lampa",
        "Name[pt]": "Lâmpada Mágica",
        "Name[pt_BR]": "Lâmpada mágica",
        "Name[sl]": "Magična svetilka",
        "Name[sv]": "Magisk lanterna",
        "Name[uk]": "Чарівна лампа",
        "Name[vi]": "Đèn thần",
        "Name[x-test]": "xxMagic Lampxx",
        "Name[zh_CN]": "最小化过渡动画 (神灯)"
    },
    "X-KDE-ConfigModule": "kwin_magiclamp_config",
    "org.kde.kwin.effect": {
        "exclusiveGroup": "minimize",
        "video": "https://files.kde.org/plasma/kwin/effect-videos/magic_lamp.ogv"
    }
}
